{
  "project_info": {
    "project_number": "145626157770",
    "firebase_url": "https://barcodescanner-97d90.firebaseio.com",
    "project_id": "barcodescanner-97d90",
    "storage_bucket": "barcodescanner-97d90.appspot.com"
  },
  "client": [
    {
      "client_info": {
        "mobilesdk_app_id": "1:145626157770:android:98e3d170206b173d1d5a33",
        "android_client_info": {
          "package_name": "com.example.barcodescanner"
        }
      },
      "oauth_client": [
        {
          "client_id": "145626157770-3u83covg40dt2934adapl9aegvd2jbpa.apps.googleusercontent.com",
          "client_type": 1,
          "android_info": {
            "package_name": "com.example.barcodescanner",
            "certificate_hash": "5dd0f4831565b6355c95ce00f0d3fdb32fe5c7d2"
          }
        },
        {
          "client_id": "145626157770-lamrboq5qr1a5j3cgs9anchfn53u5uho.apps.googleusercontent.com",
          "client_type": 3
        }
      ],
      "api_key": [
        {
          "current_key": "AIzaSyD01XoNMYiI2PJv9lCzy1fKv6NL9Fcd8co"
        }
      ],
      "services": {
        "appinvite_service": {
          "other_platform_oauth_client": [
            {
              "client_id": "145626157770-lamrboq5qr1a5j3cgs9anchfn53u5uho.apps.googleusercontent.com",
              "client_type": 3
            }
          ]
        }
      }
    }
  ],
  "configuration_version": "1"
}